<?xml version="1.0" encoding="UTF-8"?>
<svg width="60px" height="60px" viewBox="0 0 60 60" version="1.1" xmlns="http://www.w3.org/2000/svg" xmlns:xlink="http://www.w3.org/1999/xlink">
    <!-- Generator: Sketch 49.2 (51160) - http://www.bohemiancoding.com/sketch -->
    <title>Taxi Icon</title>
    <desc>Created with Sketch.</desc>
    <defs>
        <path d="M31.0654133,6.23866782 L29.8498102,6.23866782 C29.7597655,6.23866782 29.6246985,6.28429987 29.5346538,6.32993191 L28.1389614,7.24257287 L25.9778891,2.31431171 C25.5726881,1.35603871 24.6722413,0.717190043 23.6367275,0.671557995 L17.7838236,0.306501613 C17.1084885,0.260869565 16.4781758,0.260869565 15.8028407,0.260869565 C15.1275056,0.260869565 14.4971929,0.260869565 13.8218578,0.306501613 L7.96895385,0.671557995 C6.93344008,0.717190043 6.03299331,1.35603871 5.62779227,2.31431171 L3.46672004,7.24257287 L2.07102756,6.32993191 C1.98098288,6.28429987 1.8909382,6.23866782 1.75587119,6.23866782 L0.540268058,6.23866782 C0.225111691,6.23866782 0,6.46682806 0,6.78625239 L0,7.01441263 C0,7.19694082 0.0900446763,7.33383696 0.180089353,7.42510106 L1.48573716,8.52027021 C1.57578184,8.56590225 1.62080417,8.6115343 1.71084885,8.65716635 C1.75587119,8.65716635 1.75587119,8.65716635 1.80089353,8.65716635 C1.84591586,8.65716635 1.93596054,8.65716635 1.98098288,8.65716635 L2.92645198,8.38337406 L2.79138497,8.97659068 C2.79138497,9.02222273 2.74636263,9.06785478 2.70134029,9.06785478 L1.03551378,11.2581931 C0.945469101,11.3494572 0.855424425,11.4863533 0.810402087,11.6232495 C0.630312734,11.9883058 0.540268058,12.3989943 0.585290396,12.8553147 L1.5307595,22.666205 C1.5307595,22.8031011 1.66582651,22.9399973 1.80089353,22.9399973 L4.45721148,22.9399973 C4.59227849,22.9399973 4.72734551,22.8031011 4.72734551,22.666205 L4.72734551,20.8865551 C4.72734551,20.5671308 4.99747954,20.2933385 5.3126359,20.3389706 C5.3126359,20.3389706 5.3126359,20.3389706 5.3126359,20.3389706 L11.975942,20.6583949 C12.6062547,20.704027 13.2365674,20.704027 13.8668802,20.749659 C15.1275056,20.795291 16.4331534,20.795291 17.6937789,20.749659 C18.3240916,20.749659 18.9544044,20.704027 19.5847171,20.6583949 L26.2480231,20.3389706 C26.2480231,20.3389706 26.2480231,20.3389706 26.2480231,20.3389706 C26.5631795,20.3389706 26.8333135,20.5671308 26.8333135,20.8865551 L26.8333135,22.666205 C26.8333135,22.8031011 26.9683806,22.9399973 27.1034476,22.9399973 L29.7597655,22.9399973 C29.8948325,22.9399973 30.0298996,22.8487332 30.0298996,22.666205 L30.9753687,12.8553147 C31.020391,12.4446263 30.9303463,11.9883058 30.750257,11.6232495 C30.7052346,11.4863533 30.61519,11.3950892 30.5251453,11.2581931 L28.8593188,9.06785478 C28.8142964,9.02222273 28.8142964,8.97659068 28.7692741,8.97659068 L28.6342071,8.38337406 L29.5796762,8.65716635 C29.6246985,8.65716635 29.7147432,8.65716635 29.7597655,8.65716635 C29.8047879,8.65716635 29.8047879,8.65716635 29.8498102,8.65716635 C29.9398549,8.65716635 30.0298996,8.6115343 30.0749219,8.52027021 L31.3805697,7.42510106 C31.5156367,7.33383696 31.5606591,7.15130877 31.5606591,7.01441263 L31.5606591,6.78625239 C31.6056814,6.46682806 31.3805697,6.23866782 31.0654133,6.23866782 Z M6.75335072,15.5932376 C5.67281461,15.5932376 4.77236785,14.6805967 4.77236785,13.5854275 C4.77236785,12.4902584 5.67281461,11.5776174 6.75335072,11.5776174 C7.83388684,11.5776174 8.7343336,12.4902584 8.7343336,13.5854275 C8.7343336,14.6805967 7.83388684,15.5932376 6.75335072,15.5932376 Z M15.847863,7.92705359 L5.53774759,7.92705359 C5.13254655,7.92705359 4.86241252,7.47073311 5.04250187,7.10567673 L7.38366346,2.40557581 C7.47370814,2.22304762 7.65379749,2.13178352 7.83388684,2.08615147 L13.5967461,1.76672714 C15.0824833,1.67546305 16.5682204,1.67546305 18.0989799,1.76672714 L23.8168169,2.08615147 C23.9969062,2.08615147 24.1769956,2.22304762 24.2670403,2.40557581 L26.6532242,7.10567673 C26.8333135,7.47073311 26.5631795,7.92705359 26.1579785,7.92705359 L15.847863,7.92705359 Z M24.9423753,15.5932376 C23.8618392,15.5932376 22.9613925,14.6805967 22.9613925,13.5854275 C22.9613925,12.4902584 23.8618392,11.5776174 24.9423753,11.5776174 C26.0229115,11.5776174 26.9233582,12.4902584 26.9233582,13.5854275 C26.9233582,14.6805967 26.0229115,15.5932376 24.9423753,15.5932376 Z" id="path-1"></path>
    </defs>
    <g id="Survey" stroke="none" stroke-width="1" fill="none" fill-rule="evenodd">
        <g transform="translate(-892.000000, -991.000000)" id="All-your-journeys-covered">
            <g transform="translate(543.000000, 913.000000)">
                <g id="Icons" transform="translate(0.000000, 73.000000)">
                    <g id="Taxi" transform="translate(349.000000, 5.000000)">
                        <g id="Taxi-Icon">
                            <circle id="Oval" fill="#2B6993" cx="30" cy="30" r="30"></circle>
                            <g id="taxi" transform="translate(14.000000, 15.000000)">
                                <g id="Taxi" transform="translate(0.000000, 3.000000)">
                                    <mask id="mask-2" fill="white">
                                        <use xlink:href="#path-1"></use>
                                    </mask>
                                    <use id="Shape" fill="#FFFFFF" fill-rule="nonzero" xlink:href="#path-1"></use>
                                    <path d="M12,19.9000244 L14,19.9000244 L14,21.8430422 L12,21.8430422 L12,19.9000244 Z M16,19.9000244 L18,19.9000244 L18,21.8430422 L16,21.8430422 L16,19.9000244 Z M12,15.9000244 L14,15.9000244 L14,17.8430422 L12,17.8430422 L12,15.9000244 Z M16,15.9000244 L18,15.9000244 L18,17.8430422 L16,17.8430422 L16,15.9000244 Z M14,17.9000244 L16,17.9000244 L16,19.8430422 L14,19.8430422 L14,17.9000244 Z M18,17.9000244 L20,17.9000244 L20,19.8430422 L18,19.8430422 L18,17.9000244 Z M12,11.9000244 L14,11.9000244 L14,13.8430422 L12,13.8430422 L12,11.9000244 Z M16,11.9000244 L18,11.9000244 L18,13.8430422 L16,13.8430422 L16,11.9000244 Z M14,13.9000244 L16,13.9000244 L16,15.8430422 L14,15.8430422 L14,13.9000244 Z M18,13.9000244 L20,13.9000244 L20,15.8430422 L18,15.8430422 L18,13.9000244 Z M12,7.90002441 L14,7.90002441 L14,9.84304222 L12,9.84304222 L12,7.90002441 Z M16,7.90002441 L18,7.90002441 L18,9.84304222 L16,9.84304222 L16,7.90002441 Z M14,9.90002441 L16,9.90002441 L16,11.8430422 L14,11.8430422 L14,9.90002441 Z M18,9.90002441 L20,9.90002441 L20,11.8430422 L18,11.8430422 L18,9.90002441 Z" id="Combined-Shape" fill="#2B6993" mask="url(#mask-2)"></path>
                                </g>
                                <path d="M16,-1.0658141e-14 C17.502883,9.98589471e-14 18.4177425,0.0243478333 18.7445785,0.0730434998 C19.5892471,0.250466774 20.5193035,1.21880215 21,3.30478888 C21,4.04109005 19.5024729,3.99957362 18.7445785,3.99957362 L16,3.99957362 L13.2554215,3.99957362 C12.4975271,3.99957362 11,4.04109005 11,3.30478888 C11.4806965,1.21880215 12.4107529,0.250466774 13.2554215,0.0730434998 C13.5822575,0.0243478333 14.497117,9.98589471e-14 16,-1.0658141e-14 Z M13.6030821,1.78902296 L13.6030821,2.60807521 L14.4461544,2.60807521 L14.4461544,1.78902296 L13.6030821,1.78902296 Z M15.2892267,1.78902296 L15.2892267,2.60807521 L16.132299,2.60807521 L16.132299,1.78902296 L15.2892267,1.78902296 Z M16.9753713,1.78902296 L16.9753713,2.60807521 L17.8184436,2.60807521 L17.8184436,1.78902296 L16.9753713,1.78902296 Z M18.6615159,1.78902296 L18.6615159,2.60807521 L19.5045882,2.60807521 L19.5045882,1.78902296 L18.6615159,1.78902296 Z M12.7600098,0.969970703 L12.7600098,1.78902296 L13.6030821,1.78902296 L13.6030821,0.969970703 L12.7600098,0.969970703 Z M14.4461544,0.969970703 L14.4461544,1.78902296 L15.2892267,1.78902296 L15.2892267,0.969970703 L14.4461544,0.969970703 Z M16.132299,0.969970703 L16.132299,1.78902296 L16.9753713,1.78902296 L16.9753713,0.969970703 L16.132299,0.969970703 Z M17.8184436,0.969970703 L17.8184436,1.78902296 L18.6615159,1.78902296 L18.6615159,0.969970703 L17.8184436,0.969970703 Z" id="Taxi-Light" fill="#FFFFFF"></path>
                            </g>
                        </g>
                    </g>
                </g>
            </g>
        </g>
    </g>
</svg>