<?xml version="1.0" encoding="UTF-8"?>
<svg width="42px" height="42px" viewBox="0 0 42 42" version="1.1" xmlns="http://www.w3.org/2000/svg" xmlns:xlink="http://www.w3.org/1999/xlink">
    <!-- Generator: Sketch 46 (44423) - http://www.bohemiancoding.com/sketch -->
    <title>Group 8</title>
    <desc>Created with Sketch.</desc>
    <defs></defs>
    <g id="Symbols" stroke="none" stroke-width="1" fill="none" fill-rule="evenodd">
        <g id="Group-8">
            <g id="Group-6" fill="#0098FF">
                <circle id="Oval-3-Copy" cx="21" cy="21" r="21"></circle>
            </g>
            <path d="M30.99858,28.250678 C28.5176863,28.250678 26.4992437,26.2316709 26.4992437,23.7496483 C26.4992437,22.0914856 27.4014253,20.641193 28.7400918,19.860657 L30.2973536,24.0138254 C30.4103909,24.3149759 30.6958771,24.5008313 30.9997089,24.5008313 C31.0873446,24.5008313 31.1763915,24.4853081 31.2628982,24.4528504 C31.6509788,24.3073555 31.8475593,23.8751042 31.7019232,23.4870236 L30.144097,19.3325851 C30.4208338,19.2791005 30.7064611,19.2501709 30.99858,19.2501709 C33.4806026,19.2501709 35.5000331,21.2684724 35.5000331,23.7496483 C35.5000331,26.2316709 33.4806026,28.250678 30.99858,28.250678 L30.99858,28.250678 Z M20.9889221,24.509863 C20.5761454,24.509863 20.2404204,24.1728679 20.2404204,23.7588211 C20.2404204,23.3459033 20.5761454,23.0096138 20.9889221,23.0096138 C21.4032511,23.0096138 21.7403873,23.3459033 21.7403873,23.7588211 C21.7403873,24.1728679 21.4032511,24.509863 20.9889221,24.509863 L20.9889221,24.509863 Z M11.00142,28.2509603 C8.51939742,28.2509603 6.4998258,26.2319531 6.4998258,23.7502128 C6.4998258,21.2690369 8.51939742,19.2504531 11.00142,19.2504531 C11.7116781,19.2504531 12.3834104,19.4162694 12.981478,19.7106462 L10.3912161,23.3128812 C10.3892405,23.3158447 10.3878293,23.3192316 10.3859947,23.3221951 C10.368778,23.3464678 10.3556538,23.3729984 10.3415418,23.3991057 C10.3322279,23.4167457 10.3209383,23.433539 10.3128944,23.4517435 C10.3032982,23.4737583 10.2975123,23.4977487 10.2897507,23.5211746 C10.2819891,23.5448828 10.2729574,23.5680266 10.2677359,23.5922992 C10.2635023,23.6110682 10.2629379,23.6309662 10.2602566,23.6501585 C10.2564463,23.6802171 10.2516482,23.7099935 10.2510838,23.7400521 C10.2510838,23.7438624 10.2503782,23.746967 10.2503782,23.7507773 C10.2503782,23.7681351 10.2541884,23.784505 10.2553174,23.8018628 C10.2571519,23.830228 10.2588454,23.8585931 10.2637846,23.8863938 C10.2683004,23.910102 10.2753564,23.9321168 10.2819891,23.9551194 C10.2886217,23.9789687 10.2949722,24.0026769 10.3040038,24.0261028 C10.3128944,24.0485409 10.3244663,24.0694267 10.3351914,24.0905948 C10.346481,24.1127507 10.3569239,24.1347654 10.3704715,24.155369 C10.3837368,24.1761136 10.3991189,24.1946004 10.4143599,24.2136516 C10.4291775,24.2325617 10.4432895,24.2518952 10.4603651,24.2695352 C10.4799808,24.2899977 10.5019955,24.3073555 10.523728,24.32556 C10.5369933,24.3365673 10.5480007,24.3494093 10.562395,24.3597111 C10.5656408,24.3621101 10.5691688,24.3635213 10.5728379,24.3660615 C10.584692,24.3742464 10.5973928,24.3808791 10.6096703,24.3883585 C10.6362009,24.4045873 10.6628726,24.419546 10.6905322,24.4321057 C10.7047853,24.4384561 10.7191796,24.4442421 10.7337149,24.4494635 C10.7632091,24.4610354 10.7932677,24.4702082 10.8236085,24.4776876 C10.8371561,24.4809333 10.8501391,24.4846025 10.8638278,24.4870015 C10.9091274,24.4953276 10.9542859,24.5008313 10.9997266,24.5008313 L11.0008555,24.5008313 L15.4368289,24.5011135 C15.0782423,26.6263842 13.2264627,28.2509603 11.00142,28.2509603 L11.00142,28.2509603 Z M14.1983577,20.5877084 C14.8362212,21.232769 15.2799032,22.0686241 15.4371111,23.0008644 L12.4632845,23.0008644 L14.1983577,20.5877084 Z M17.0470107,16.6264636 L19.216452,22.379512 C19.0713804,22.5656496 18.9556618,22.775072 18.8743765,23.0011466 L16.9524601,23.0011466 C16.7738019,21.5668006 16.09078,20.2906503 15.0847339,19.3554466 L17.0470107,16.6264636 Z M25.5767407,16.0004542 L21.5606001,21.5857107 C21.3778494,21.5378709 21.1869137,21.5096469 20.9889221,21.5096469 C20.8249404,21.5096469 20.6656156,21.5284159 20.5113712,21.5618614 L18.4140423,16.0004542 L25.5767407,16.0004542 Z M30.99858,17.750204 C30.520888,17.750204 30.0570258,17.8074988 29.6116504,17.9127745 L27.2018813,11.4867237 C27.0920898,11.193617 26.8121072,11 26.4998082,11 L26.494869,11 L24.0103062,11.0153821 C23.5961183,11.0180634 23.262369,11.3560463 23.2650503,11.769952 C23.2675904,12.1828698 23.602751,12.5156313 24.0151043,12.5156313 L24.0197612,12.5156313 L25.9810502,12.5033538 L26.7288463,14.4975238 C26.7274351,14.4983705 26.7264473,14.4996406 26.7247538,14.5006284 L17.8481502,14.5006284 L17.0938626,12.5003903 L17.9987255,12.5003903 C18.4129134,12.5003903 18.7489207,12.1645241 18.7489207,11.7503363 C18.7489207,11.3361484 18.4129134,11.0001411 17.9987255,11.0001411 L14.4988027,11.0001411 C14.0846148,11.0001411 13.7488898,11.3361484 13.7488898,11.7503363 C13.7488898,12.1645241 14.0846148,12.5003903 14.4988027,12.5003903 L15.4907368,12.5003903 L16.4111229,14.9410647 L13.8678541,18.4778199 C13.0161935,18.0139577 12.0396416,17.7504862 11.00142,17.7504862 C7.68594134,17.7504862 5,20.4350163 5,23.7502128 C5,27.0632924 7.68594134,29.7512094 11.00142,29.7512094 C14.0611888,29.7512094 16.582584,27.4598403 16.9521779,24.5013958 L18.8685906,24.5013958 C19.1759505,25.3783169 20.0091243,26.0098299 20.9889221,26.0098299 C22.2303567,26.0098299 23.2404953,24.9999735 23.2404953,23.7588211 C23.2404953,23.2613723 23.0759491,22.8028727 22.8014703,22.430033 L27.3377801,16.1212531 L28.2067985,18.4387296 C26.2996997,19.4430822 24.9992768,21.4433204 24.9992768,23.7496483 C24.9992768,27.0627279 27.683948,29.7509272 30.99858,29.7509272 C34.3140587,29.7509272 37,27.0627279 37,23.7496483 C37,20.4347341 34.3140587,17.750204 30.99858,17.750204 L30.99858,17.750204 Z" id="Fill-1" fill="#FFFFFF"></path>
        </g>
    </g>
</svg>